module gitlab.com/rakshazi/deadman

go 1.15

require (
	github.com/alexedwards/scs/v2 v2.4.0
	github.com/gin-contrib/multitemplate v0.0.0-20200916052041-666a7309d230
	github.com/gin-gonic/gin v1.6.3
	github.com/go-co-op/gocron v0.5.1
	github.com/go-playground/validator/v10 v10.4.1 // indirect
	github.com/golang/protobuf v1.4.3 // indirect
	github.com/gwatts/gin-adapter v0.0.0-20170508204228-c44433c485ad
	github.com/jackc/pgproto3/v2 v2.0.7 // indirect
	github.com/jackc/pgx/v4 v4.10.1
	github.com/json-iterator/go v1.1.10 // indirect
	github.com/leodido/go-urn v1.2.1 // indirect
	github.com/modern-go/concurrent v0.0.0-20180306012644-bacd9c7ef1dd // indirect
	github.com/modern-go/reflect2 v1.0.1 // indirect
	github.com/pkg/errors v0.9.1 // indirect
	github.com/ugorji/go v1.2.3 // indirect
	github.com/xhit/go-simple-mail v2.2.2+incompatible
	golang.org/x/crypto v0.0.0-20201221181555-eec23a3978ad
	golang.org/x/sys v0.0.0-20210124154548-22da62e12c0c // indirect
	golang.org/x/text v0.3.5 // indirect
	golang.org/x/xerrors v0.0.0-20200804184101-5ec99f83aff1 // indirect
	google.golang.org/protobuf v1.25.0 // indirect
	gopkg.in/yaml.v2 v2.4.0 // indirect
)
